<?xml version="1.0" encoding="UTF-8" standalone="no"?><!DOCTYPE svg PUBLIC "-//W3C//DTD SVG 1.1//EN" "http://www.w3.org/Graphics/SVG/1.1/DTD/svg11.dtd">
<svg width="100%" height="100%" viewBox="0 0 600 400" version="1.1" xmlns="http://www.w3.org/2000/svg" xmlns:xlink="http://www.w3.org/1999/xlink" xml:space="preserve" style="fill-rule:evenodd;clip-rule:evenodd;stroke-linecap:round;stroke-linejoin:round;stroke-miterlimit:1.5;">
    <!--<path d="M300,20l280,360l-560,0l280,-360Z" style="fill:none;"/>-->
    <clipPath id="dreieck">
        <path d="M 300,20 l 280,360 l -560,0 l 280,-360Z"/>
    </clipPath>
    <g id="circles" clip-path="url(#dreieck)">
        <circle id="cA" cx="20" cy="380" r="60" style="fill:none;stroke:#000;stroke-width:2.21px;"/>
        <circle id="cB" cx="580" cy="380" r="60" style="fill:none;stroke:#000;stroke-width:2.21px;"/>
        <circle id="cC" cx="300" cy="20" r="60" style="fill:none;stroke:#000;stroke-width:2.21px;"/>
    </g>
    <path d="M300,20 l 280,360 l -560,0 l 280,-360 Z" style="fill:none;stroke:#000;stroke-width:2.21px;"/>

    <text id="lalpha" x="49.201px" y="366.792px" style="font-family:'ArialMT', 'Arial', sans-serif;font-size:20px;">α</text>
    <text id="lbeta" x="536.211px" y="366.792px" style="font-family:'ArialMT', 'Arial', sans-serif;font-size:20px;">β</text>
    <text id="lgamma" x="294.287px" y="60.294px" style="font-family:'ArialMT', 'Arial', sans-serif;font-size:20px;">γ</text>

    <text id="lA" x="3.33px" y="394.326px" style="font-family:'ArialMT', 'Arial', sans-serif;font-size:20px;">A</text>
    <text id="lB" x="583.33px" y="394.326px" style="font-family:'ArialMT', 'Arial', sans-serif;font-size:20px;">B</text>
    <text id="lC" x="292.595px" y="15.326px" style="font-family:'ArialMT', 'Arial', sans-serif;font-size:20px;">C</text>

    <text id="la" x="433.273px" y="173.418px" style="font-family:'ArialMT', 'Arial', sans-serif;font-size:20px;">a</text>
    <text id="lb" x="139.384px" y="200px" style="font-family:'ArialMT', 'Arial', sans-serif;font-size:20px;">b</text>
    <text id="lc" x="294.287px" y="394.326px" style="font-family:'ArialMT', 'Arial', sans-serif;font-size:20px;">c</text>
</svg>